{
    "count": 844,
    "next": "https://api.beegame.gg/api/matches/?page=2",
    "previous": null,
    "results": [
        {
            "id": 356898,
            "home": {
                "id": 719,
                "name": "SKOOMA SNAIL GANG",
                "is_active": false,
                "wins": 1,
                "losses": 7,
                "members": [
                    "Bzach",
                    "Ryokushin",
                    "Literally the Best Girl Ever",
                    "WngMn27",
                    "Hexa",
                    "SquishyMoose"
                ],
                "dynasty": null
            },
            "away": {
                "id": 707,
                "name": "Scrub Gaming",
                "is_active": false,
                "wins": 1,
                "losses": 5,
                "members": [
                    "ReubDaNoob",
                    "Gamerteach",
                    "ShaneBot",
                    "Hercules2189",
                    "GabeTries"
                ],
                "dynasty": null
            },
            "circuit": {
                "id": 17,
                "season": {
                    "id": 3,
                    "name": "Winter 2020",
                    "league": {
                        "name": "Indy Gaming League",
                        "_href": "https://api.beegame.gg/api/leagues/1/"
                    }
                },
                "region": "A",
                "tier": "3",
                "name": null,
                "verbose_name": "Tier 3 All"
            },
            "round": {
                "number": "0.00",
                "name": "Week 0"
            },
            "start_time": null,
            "time_until": null,
            "scheduled": false,
            "primary_caster": {
                "name": "*AG*",
                "bio_link": "Meet AG",
                "stream_link": "https://twitch.tv/AaronG83"
            },
            "secondary_casters": [],
            "result": {
                "status": "Completed",
                "winner": {
                    "id": 719,
                    "name": "SKOOMA SNAIL GANG",
                    "is_active": false,
                    "wins": 1,
                    "losses": 7,
                    "circuit_abbrev": "3A"
                },
                "loser": {
                    "id": 707,
                    "name": "Scrub Gaming",
                    "is_active": false,
                    "wins": 1,
                    "losses": 5,
                    "circuit_abbrev": "3A"
                },
                "sets": [
                    {
                        "number": 1,
                        "winner": {
                            "id": 719,
                            "name": "SKOOMA SNAIL GANG",
                            "is_active": false,
                            "wins": 1,
                            "losses": 7,
                            "circuit_abbrev": "3A"
                        },
                        "loser": {
                            "id": 707,
                            "name": "Scrub Gaming",
                            "is_active": false,
                            "wins": 1,
                            "losses": 5,
                            "circuit_abbrev": "3A"
                        }
                    },
                    {
                        "number": 2,
                        "winner": {
                            "id": 719,
                            "name": "SKOOMA SNAIL GANG",
                            "is_active": false,
                            "wins": 1,
                            "losses": 7,
                            "circuit_abbrev": "3A"
                        },
                        "loser": {
                            "id": 707,
                            "name": "Scrub Gaming",
                            "is_active": false,
                            "wins": 1,
                            "losses": 5,
                            "circuit_abbrev": "3A"
                        }
                    },
                    {
                        "number": 1,
                        "winner": {
                            "id": 707,
                            "name": "Scrub Gaming",
                            "is_active": false,
                            "wins": 1,
                            "losses": 5,
                            "circuit_abbrev": "3A"
                        },
                        "loser": {
                            "id": 719,
                            "name": "SKOOMA SNAIL GANG",
                            "is_active": false,
                            "wins": 1,
                            "losses": 7,
                            "circuit_abbrev": "3A"
                        }
                    }
                ],
                "set_count": {
                    "home": 2,
                    "away": 1,
                    "total": 3
                }
            },
            "vod_link": ""
        },
        {
            "id": 356823,
            "home": {
                "id": 999,
                "name": "Cross Platform Disadvantaged Switch Players",
                "is_active": false,
                "wins": 4,
                "losses": 4,
                "members": [
                    "Yoshi McB",
                    "Juntao",
                    "zouzouni",
                    "C. Falcon"
                ],
                "dynasty": null
            },
            "away": {
                "id": 1000,
                "name": "SEABEEZ",
                "is_active": false,
                "wins": 4,
                "losses": 4,
                "members": [
                    "MeXiNsAnE",
                    "-=Jupiter.Rising=-",
                    "Judgerknot",
                    "yaarrr"
                ],
                "dynasty": null
            },
            "circuit": {
                "id": 19,
                "season": {
                    "id": 4,
                    "name": "Spring 2020",
                    "league": {
                        "name": "Indy Gaming League",
                        "_href": "https://api.beegame.gg/api/leagues/1/"
                    }
                },
                "region": "W",
                "tier": "2",
                "name": null,
                "verbose_name": "Tier 2 West"
            },
            "round": {
                "number": "0.00",
                "name": "Week 0"
            },
            "start_time": null,
            "time_until": null,
            "scheduled": false,
            "primary_caster": {
                "name": "*AG*",
                "bio_link": "Meet AG",
                "stream_link": "https://twitch.tv/AaronG83"
            },
            "secondary_casters": [],
            "result": {
                "status": "Completed",
                "winner": {
                    "id": 1000,
                    "name": "SEABEEZ",
                    "is_active": false,
                    "wins": 4,
                    "losses": 4,
                    "circuit_abbrev": "2W"
                },
                "loser": {
                    "id": 999,
                    "name": "Cross Platform Disadvantaged Switch Players",
                    "is_active": false,
                    "wins": 4,
                    "losses": 4,
                    "circuit_abbrev": "2W"
                },
                "sets": [
                    {
                        "number": 1,
                        "winner": {
                            "id": 999,
                            "name": "Cross Platform Disadvantaged Switch Players",
                            "is_active": false,
                            "wins": 4,
                            "losses": 4,
                            "circuit_abbrev": "2W"
                        },
                        "loser": {
                            "id": 1000,
                            "name": "SEABEEZ",
                            "is_active": false,
                            "wins": 4,
                            "losses": 4,
                            "circuit_abbrev": "2W"
                        }
                    },
                    {
                        "number": 2,
                        "winner": {
                            "id": 999,
                            "name": "Cross Platform Disadvantaged Switch Players",
                            "is_active": false,
                            "wins": 4,
                            "losses": 4,
                            "circuit_abbrev": "2W"
                        },
                        "loser": {
                            "id": 1000,
                            "name": "SEABEEZ",
                            "is_active": false,
                            "wins": 4,
                            "losses": 4,
                            "circuit_abbrev": "2W"
                        }
                    },
                    {
                        "number": 3,
                        "winner": {
                            "id": 999,
                            "name": "Cross Platform Disadvantaged Switch Players",
                            "is_active": false,
                            "wins": 4,
                            "losses": 4,
                            "circuit_abbrev": "2W"
                        },
                        "loser": {
                            "id": 1000,
                            "name": "SEABEEZ",
                            "is_active": false,
                            "wins": 4,
                            "losses": 4,
                            "circuit_abbrev": "2W"
                        }
                    },
                    {
                        "number": 1,
                        "winner": {
                            "id": 1000,
                            "name": "SEABEEZ",
                            "is_active": false,
                            "wins": 4,
                            "losses": 4,
                            "circuit_abbrev": "2W"
                        },
                        "loser": {
                            "id": 999,
                            "name": "Cross Platform Disadvantaged Switch Players",
                            "is_active": false,
                            "wins": 4,
                            "losses": 4,
                            "circuit_abbrev": "2W"
                        }
                    },
                    {
                        "number": 2,
                        "winner": {
                            "id": 1000,
                            "name": "SEABEEZ",
                            "is_active": false,
                            "wins": 4,
                            "losses": 4,
                            "circuit_abbrev": "2W"
                        },
                        "loser": {
                            "id": 999,
                            "name": "Cross Platform Disadvantaged Switch Players",
                            "is_active": false,
                            "wins": 4,
                            "losses": 4,
                            "circuit_abbrev": "2W"
                        }
                    }
                ],
                "set_count": {
                    "home": 3,
                    "away": 2,
                    "total": 5
                }
            },
            "vod_link": ""
        }
    ]
}